﻿2000000001128;Adrian;Białek;Pomocnik;Hala
2000000001333;Karol;Czyż;Pomocnik;Magazyn
2000000001005;Łukasz;Kramarz;Magazyn;Magazyn
2000000001029;Grzegorz;Książek;Monter konstrukcji aluminiowych;Hala
2000000001319;Oskar;Korczyński;Pomocnik;Hala
2000000000000;Rafał;Hryncewicz;Tech-guy;Biuro